<svg width="16" height="19.9" viewBox="0 0 16 17.9" xmlns="http://www.w3.org/2000/svg">
	<style type="text/css">
	.st0{fill:#F4961B;}
</style>
<path class="st0" d="M15.1,3.8c-1.9-1.1-3.9-2.2-5.8-3.4C9.1,0.3,8.8,0.2,8.6,0.1C8.5,0.1,8.3,0,8,0C7.7,0,7.5,0.1,7.4,0.1
	C7.2,0.2,6.9,0.3,6.7,0.4C4.8,1.5,2.9,2.7,0.9,3.8C0.5,4,0,4.7,0,5.1c0,0.2,0,7.4,0,7.6c0,0.5,0.6,1.1,0.9,1.3
	C2.4,15,4,15.9,5.5,16.8c0.5,0.3,1.1,0.6,1.6,0.9c0.2,0.1,0.4,0.2,0.6,0.2c0,0,0.1,0,0.3,0s0.3,0,0.3,0c0.2,0,0.4-0.1,0.6-0.2
	c0.5-0.3,1.1-0.6,1.6-0.9c1.5-0.9,3.1-1.8,4.6-2.7c0.3-0.2,0.9-0.8,0.9-1.3c0-0.2,0-7.4,0-7.6C16,4.7,15.5,4,15.1,3.8z M14,12.4
	c-1.3,0.7-2.6,1.5-3.8,2.2c-0.7,0.4-1.4,0.8-2.1,1.2c0,0,0,0-0.1,0c0,0,0,0-0.1,0c-0.7-0.4-1.4-0.8-2.1-1.2
	c-1.3-0.7-2.6-1.5-3.8-2.2c0-2.3,0-4.6,0-6.9c1.8-1,3.6-2.1,5.4-3.1c0.2-0.1,0.3-0.2,0.5-0.3c0,0,0,0,0.1,0c0,0,0,0,0.1,0
	c0.2,0.1,0.3,0.2,0.5,0.3c1.8,1,3.6,2.1,5.4,3.1C14,7.8,14,10.1,14,12.4z"/>
</svg>
